Week 10 - Homework
…
For each, obtain a 5-fold cross-validated misclassification rate using the model as a classifier that seeks to minimize the misclassification rate. Based on this, which model is best? Relative to the best, are the other two underfitting or over fitting? Report the test misclassification rate for the model you picked as the best.

wisc_train = read.csv("~/Desktop/20Summer/Stat420/Week10/wisc-train.csv")
wisc_test = read.csv("~/Desktop/20Summer/Stat420/Week10/wisc-test.csv")
wisc_train$class = as.factor(wisc_train$class)
tibble::as.tibble(wisc_train)

## Warning: `as.tibble()` is deprecated as of tibble 2.0.0.
## Please use `as_tibble()` instead.
## The signature and semantics have changed, see `?as_tibble`.
## This warning is displayed once every 8 hours.
## Call `lifecycle::last_warnings()` to see where this warning was generated.

## # A tibble: 100 x 11
##    class radius texture perimeter  area smoothness compactness concavity concave
##    <fct>  <dbl>   <dbl>     <dbl> <dbl>      <dbl>       <dbl>     <dbl>   <dbl>
##  1 M       19.7    21.2     130   1203      0.110       0.160     0.197   0.128 
##  2 M       11.4    20.4      77.6  386.     0.142       0.284     0.241   0.105 
##  3 B       13.1    15.7      85.6  520      0.108       0.127     0.0457  0.0311
##  4 M       15.3    14.3     102.   704.     0.107       0.214     0.208   0.0976
##  5 M       17.1    16.4     116    913.     0.119       0.228     0.223   0.140 
##  6 M       18.6    20.2     122.  1094      0.0944      0.107     0.149   0.0773
##  7 M       19.3    26.5     128.  1162      0.0940      0.172     0.166   0.0759
##  8 M       13.2    21.8      85.4  532.     0.0971      0.105     0.0826  0.0525
##  9 M       18.6    17.6     124.  1076      0.110       0.169     0.197   0.101 
## 10 B       11.8    21.6      74.7  428.     0.0864      0.0497    0.0166  0.0112
## #  with 90 more rows, and 2 more variables: symmetry <dbl>, fractal <dbl>
…
